out.txt
VCD info: dumpfile output.vcd opened for output.
Starting simulation
Simulation ended.
                   0,	0,	0,	249255
                   5,	1,	0,	249255
                  10,	0,	1,	249255
                  15,	1,	1,	164255
                  20,	0,	1,	164255
                  25,	1,	1,	176255
                  30,	0,	1,	176255
                  35,	1,	1,	153255
                  40,	0,	1,	153255
                  45,	1,	1,	146255
                  50,	0,	1,	146255
                  55,	1,	1,	130255
                  60,	0,	1,	130255
                  65,	1,	1,	248255
                  70,	0,	1,	248255
                  75,	1,	1,	128255
                  80,	0,	1,	128255
                  85,	1,	1,	152255
                  90,	0,	1,	152255
                  95,	1,	1,	192249
                 100,	0,	1,	192249
                 105,	1,	1,	249249
                 110,	0,	1,	249249
                 115,	1,	1,	164249
                 120,	0,	1,	164249
                 125,	1,	1,	176249
                 130,	0,	1,	176249
                 135,	1,	1,	153249
                 140,	0,	1,	153249
                 145,	1,	1,	146249
                 150,	0,	1,	146249
                 155,	1,	1,	130249
                 160,	0,	1,	130249
                 165,	1,	1,	248249
                 170,	0,	1,	248249
                 175,	1,	1,	128249
                 180,	0,	1,	128249
                 185,	1,	1,	152249
                 190,	0,	1,	152249
                 195,	1,	1,	192164
                 200,	0,	1,	192164
                 205,	1,	1,	249164
                 210,	0,	1,	249164
                 215,	1,	1,	164164
                 220,	0,	1,	164164
                 225,	1,	1,	176164
                 230,	0,	1,	176164
                 235,	1,	1,	153164
                 240,	0,	1,	153164
                 245,	1,	1,	146164
                 250,	0,	1,	146164
                 255,	1,	1,	130164
                 260,	0,	1,	130164
                 265,	1,	1,	248164
                 270,	0,	1,	248164
                 275,	1,	1,	128164
                 280,	0,	1,	128164
                 285,	1,	1,	152164
                 290,	0,	1,	152164
                 295,	1,	1,	192176
                 300,	0,	1,	192176
                 305,	1,	1,	249176
                 310,	0,	1,	249176
                 315,	1,	1,	164176
                 320,	0,	1,	164176
                 325,	1,	1,	176176
                 330,	0,	1,	176176
                 335,	1,	1,	153176
                 340,	0,	1,	153176
                 345,	1,	1,	146176
                 350,	0,	1,	146176
                 355,	1,	1,	130176
                 360,	0,	1,	130176
                 365,	1,	1,	248176
                 370,	0,	1,	248176
                 375,	1,	1,	128176
                 380,	0,	1,	128176
                 385,	1,	1,	152176
                 390,	0,	1,	152176
                 395,	1,	1,	192153
                 400,	0,	1,	192153
                 405,	1,	1,	249153
                 410,	0,	1,	249153
                 415,	1,	1,	164153
                 420,	0,	1,	164153
                 425,	1,	1,	176153
                 430,	0,	1,	176153
                 435,	1,	1,	153153
                 440,	0,	1,	153153
                 445,	1,	1,	146153
                 450,	0,	1,	146153
                 455,	1,	1,	130153
                 460,	0,	1,	130153
                 465,	1,	1,	248153
                 470,	0,	1,	248153
                 475,	1,	1,	128153
                 480,	0,	1,	128153
                 485,	1,	1,	152153
                 490,	0,	1,	152153
                 495,	1,	1,	192146
                 500,	0,	1,	192146
                 505,	1,	1,	249146
                 510,	0,	1,	249146
                 515,	1,	1,	164146
                 520,	0,	1,	164146
                 525,	1,	1,	176146
                 530,	0,	1,	176146
                 535,	1,	1,	153146
                 540,	0,	1,	153146
                 545,	1,	1,	146146
                 550,	0,	1,	146146
                 555,	1,	1,	130146
                 560,	0,	1,	130146
                 565,	1,	1,	248146
                 570,	0,	1,	248146
                 575,	1,	1,	128146
                 580,	0,	1,	128146
                 585,	1,	1,	152146
                 590,	0,	1,	152146
                 595,	1,	1,	192130
                 600,	0,	1,	192130
                 605,	1,	1,	249130
                 610,	0,	1,	249130
                 615,	1,	1,	164130
                 620,	0,	1,	164130
                 625,	1,	1,	176130
                 630,	0,	1,	176130
                 635,	1,	1,	153130
                 640,	0,	1,	153130
                 645,	1,	1,	146130
                 650,	0,	1,	146130
                 655,	1,	1,	130130
                 660,	0,	1,	130130
                 665,	1,	1,	248130
                 670,	0,	1,	248130
                 675,	1,	1,	128130
                 680,	0,	1,	128130
                 685,	1,	1,	152130
                 690,	0,	1,	152130
                 695,	1,	1,	192248
                 700,	0,	1,	192248
                 705,	1,	1,	249248
                 710,	0,	1,	249248
                 715,	1,	1,	164248
                 720,	0,	1,	164248
                 725,	1,	1,	176248
                 730,	0,	1,	176248
                 735,	1,	1,	153248
                 740,	0,	1,	153248
                 745,	1,	1,	146248
                 750,	0,	1,	146248
                 755,	1,	1,	130248
                 760,	0,	1,	130248
                 765,	1,	1,	248248
                 770,	0,	1,	248248
                 775,	1,	1,	128248
                 780,	0,	1,	128248
                 785,	1,	1,	152248
                 790,	0,	1,	152248
                 795,	1,	1,	192128
                 800,	0,	1,	192128
                 805,	1,	1,	249128
                 810,	0,	1,	249128
                 815,	1,	1,	164128
                 820,	0,	1,	164128
                 825,	1,	1,	176128
                 830,	0,	1,	176128
                 835,	1,	1,	153128
                 840,	0,	1,	153128
                 845,	1,	1,	146128
                 850,	0,	1,	146128
                 855,	1,	1,	130128
                 860,	0,	1,	130128
                 865,	1,	1,	248128
                 870,	0,	1,	248128
                 875,	1,	1,	128128
                 880,	0,	1,	128128
                 885,	1,	1,	152128
                 890,	0,	1,	152128
                 895,	1,	1,	192152
                 900,	0,	1,	192152
                 905,	1,	1,	249152
                 910,	0,	1,	249152
                 915,	1,	1,	164152
                 920,	0,	1,	164152
                 925,	1,	1,	176152
                 930,	0,	1,	176152
                 935,	1,	1,	153152
                 940,	0,	1,	153152
                 945,	1,	1,	146152
                 950,	0,	1,	146152
                 955,	1,	1,	130152
                 960,	0,	1,	130152
                 965,	1,	1,	248152
                 970,	0,	1,	248152
                 975,	1,	1,	128152
                 980,	0,	1,	128152
                 985,	1,	1,	152152
                 990,	0,	1,	152152
                 995,	1,	1,	249255
                1000,	0,	1,	249255
                1005,	1,	1,	164255
                1010,	0,	1,	164255
                1015,	1,	1,	176255
                1020,	0,	1,	176255
                1025,	1,	1,	153255
                1030,	0,	1,	153255
                1035,	1,	1,	146255
                1040,	0,	1,	146255
                1045,	1,	1,	130255
                1050,	0,	1,	130255
                1055,	1,	1,	248255
                1060,	0,	1,	248255
                1065,	1,	1,	128255
                1070,	0,	1,	128255
                1075,	1,	1,	152255
                1080,	0,	1,	152255
                1085,	1,	1,	192249
                1090,	0,	1,	192249
                1095,	1,	1,	249249
                1100,	0,	1,	249249
                1105,	1,	1,	164249
                1110,	0,	1,	164249
                1115,	1,	1,	176249
                1120,	0,	1,	176249
                1125,	1,	1,	153249
                1130,	0,	1,	153249
                1135,	1,	1,	146249
                1140,	0,	1,	146249
                1145,	1,	1,	130249
                1150,	0,	1,	130249
                1155,	1,	1,	248249
                1160,	0,	1,	248249
                1165,	1,	1,	128249
                1170,	0,	1,	128249
                1175,	1,	1,	152249
                1180,	0,	1,	152249
                1185,	1,	1,	192164
                1190,	0,	1,	192164
                1195,	1,	1,	249164
                1200,	0,	1,	249164
                1205,	1,	1,	164164
                1210,	0,	1,	164164
                1215,	1,	1,	176164
                1220,	0,	1,	176164
                1225,	1,	1,	153164
                1230,	0,	1,	153164
                1235,	1,	1,	146164
                1240,	0,	1,	146164
                1245,	1,	1,	130164
                1250,	0,	1,	130164
                1255,	1,	1,	248164
                1260,	0,	1,	248164
                1265,	1,	1,	128164
                1270,	0,	1,	128164
                1275,	1,	1,	152164
                1280,	0,	1,	152164
                1285,	1,	1,	192176
                1290,	0,	1,	192176
                1295,	1,	1,	249176
                1300,	0,	1,	249176
