out.txt
VCD info: dumpfile output.vcd opened for output.
Starting simulation
Simulation ended.
                   0,	0,	00000001, 	00000001, 	01011000
                   5,	1,	00000010, 	00000001, 	01011000
                  10,	0,	00000010, 	00000001, 	01011000
                  15,	1,	00000011, 	00000010, 	01011000
                  20,	0,	00000011, 	00000010, 	01011000
                  25,	1,	00000100, 	00000011, 	01011000
                  30,	0,	00000100, 	00000011, 	01011000
                  35,	1,	00000101, 	00000100, 	01011000
                  40,	0,	00000101, 	00000100, 	01011000
                  45,	1,	00000110, 	00000101, 	01011000
                  50,	0,	00000110, 	00000101, 	01011000
                  55,	1,	00000111, 	00000110, 	01011000
                  60,	0,	00000111, 	00000110, 	01011000
                  65,	1,	00001000, 	00000111, 	01011000
                  70,	0,	00001000, 	00000111, 	01011000
                  75,	1,	00001001, 	00001000, 	01011000
                  80,	0,	00001001, 	00001000, 	01011000
                  85,	1,	00001010, 	00001001, 	01011000
                  90,	0,	00001010, 	00001001, 	01011000
                  95,	1,	00001011, 	00000000, 	00000001
                 100,	0,	00001011, 	00000000, 	00000001
                 105,	1,	00001100, 	00000001, 	00000001
                 110,	0,	00001100, 	00000001, 	00000001
                 115,	1,	00001101, 	00000010, 	00000001
                 120,	0,	00001101, 	00000010, 	00000001
                 125,	1,	00001110, 	00000011, 	00000001
                 130,	0,	00001110, 	00000011, 	00000001
                 135,	1,	00001111, 	00000100, 	00000001
                 140,	0,	00001111, 	00000100, 	00000001
                 145,	1,	00010000, 	00000101, 	00000001
                 150,	0,	00010000, 	00000101, 	00000001
                 155,	1,	00010001, 	00000110, 	00000001
                 160,	0,	00010001, 	00000110, 	00000001
                 165,	1,	00010010, 	00000111, 	00000001
                 170,	0,	00010010, 	00000111, 	00000001
                 175,	1,	00010011, 	00001000, 	00000001
                 180,	0,	00010011, 	00001000, 	00000001
                 185,	1,	00010100, 	00001001, 	00000001
                 190,	0,	00010100, 	00001001, 	00000001
                 195,	1,	00010101, 	00000000, 	00000010
                 200,	0,	00010101, 	00000000, 	00000010
                 205,	1,	00010110, 	00000001, 	00000010
                 210,	0,	00010110, 	00000001, 	00000010
                 215,	1,	00010111, 	00000010, 	00000010
                 220,	0,	00010111, 	00000010, 	00000010
                 225,	1,	00011000, 	00000011, 	00000010
                 230,	0,	00011000, 	00000011, 	00000010
                 235,	1,	00011001, 	00000100, 	00000010
                 240,	0,	00011001, 	00000100, 	00000010
                 245,	1,	00011010, 	00000101, 	00000010
                 250,	0,	00011010, 	00000101, 	00000010
                 255,	1,	00011011, 	00000110, 	00000010
                 260,	0,	00011011, 	00000110, 	00000010
                 265,	1,	00011100, 	00000111, 	00000010
                 270,	0,	00011100, 	00000111, 	00000010
                 275,	1,	00011101, 	00001000, 	00000010
                 280,	0,	00011101, 	00001000, 	00000010
                 285,	1,	00011110, 	00001001, 	00000010
                 290,	0,	00011110, 	00001001, 	00000010
                 295,	1,	00011111, 	00000000, 	00000011
                 300,	0,	00011111, 	00000000, 	00000011
                 305,	1,	00100000, 	00000001, 	00000011
                 310,	0,	00100000, 	00000001, 	00000011
                 315,	1,	00100001, 	00000010, 	00000011
                 320,	0,	00100001, 	00000010, 	00000011
                 325,	1,	00100010, 	00000011, 	00000011
                 330,	0,	00100010, 	00000011, 	00000011
                 335,	1,	00100011, 	00000100, 	00000011
                 340,	0,	00100011, 	00000100, 	00000011
                 345,	1,	00100100, 	00000101, 	00000011
                 350,	0,	00100100, 	00000101, 	00000011
                 355,	1,	00100101, 	00000110, 	00000011
                 360,	0,	00100101, 	00000110, 	00000011
                 365,	1,	00100110, 	00000111, 	00000011
                 370,	0,	00100110, 	00000111, 	00000011
                 375,	1,	00100111, 	00001000, 	00000011
                 380,	0,	00100111, 	00001000, 	00000011
                 385,	1,	00101000, 	00001001, 	00000011
                 390,	0,	00101000, 	00001001, 	00000011
                 395,	1,	00101001, 	00000000, 	00000100
                 400,	0,	00101001, 	00000000, 	00000100
                 405,	1,	00101010, 	00000001, 	00000100
                 410,	0,	00101010, 	00000001, 	00000100
                 415,	1,	00101011, 	00000010, 	00000100
                 420,	0,	00101011, 	00000010, 	00000100
                 425,	1,	00101100, 	00000011, 	00000100
                 430,	0,	00101100, 	00000011, 	00000100
                 435,	1,	00101101, 	00000100, 	00000100
                 440,	0,	00101101, 	00000100, 	00000100
                 445,	1,	00101110, 	00000101, 	00000100
                 450,	0,	00101110, 	00000101, 	00000100
                 455,	1,	00101111, 	00000110, 	00000100
                 460,	0,	00101111, 	00000110, 	00000100
                 465,	1,	00110000, 	00000111, 	00000100
                 470,	0,	00110000, 	00000111, 	00000100
                 475,	1,	00110001, 	00001000, 	00000100
                 480,	0,	00110001, 	00001000, 	00000100
                 485,	1,	00110010, 	00001001, 	00000100
                 490,	0,	00110010, 	00001001, 	00000100
                 495,	1,	00110011, 	00000000, 	00000101
                 500,	0,	00110011, 	00000000, 	00000101
